rerddap introduction • rOpenSci: rerddap
…
(res <- griddap(out,
  time = c('2015-01-01','2015-01-03'),
  latitude = c(14, 15),
  longitude = c(125, 126)
))
#> <ERDDAP griddap> erdMBchla1day
#>    Path: [/Users/sckott/Library/Caches/R/rerddap/4d844aa48552049c3717ac94ced5f9b8.nc]
#>    Last updated: [2020-11-02 14:30:54]
#>    File size:    [0.03 mb]
#>    Dimensions (dims/vars):   [4 X 1]
#>    Dim names: time, altitude, latitude, longitude
#>    Variable names: Chlorophyll Concentration in Sea Water
#>    data.frame (rows/columns):   [5043 X 5]
#> # A tibble: 5,043 x 5
#>    time                   lat   lon altitude chlorophyll
#>    <chr>                <dbl> <dbl>    <dbl>       <dbl>
#>  1 2015-01-01T12:00:00Z    14  125         0          NA
#>  2 2015-01-01T12:00:00Z    14  125.        0          NA
#>  3 2015-01-01T12:00:00Z    14  125.        0          NA
#>  4 2015-01-01T12:00:00Z    14  125.        0          NA
#>  5 2015-01-01T12:00:00Z    14  125.        0          NA
#>  6 2015-01-01T12:00:00Z    14  125.        0          NA
#>  7 2015-01-01T12:00:00Z    14  125.        0          NA
#>  8 2015-01-01T12:00:00Z    14  125.        0          NA
#>  9 2015-01-01T12:00:00Z    14  125.        0          NA
#> 10 2015-01-01T12:00:00Z    14  125.        0          NA
#> # … with 5,033 more rows
…
(dat <- tabledap('erdCalCOFIlrvsiz', fields=c('latitude','longitude','larvae_size',
  'scientific_name'), 'time>=2011-01-01', 'time<=2011-12-31'))
#> <ERDDAP tabledap> erdCalCOFIlrvsiz
#>    Path: [/Users/sckott/Library/Caches/R/rerddap/db7389db5b5b0ed9c426d5c13bc43d18.csv]
#>    Last updated: [2020-11-02 14:30:57]
#>    File size:    [0.05 mb]
#> # A tibble: 1,304 x 4
#>    latitude  longitude   larvae_size scientific_name     
#>    <chr>     <chr>       <chr>       <chr>               
#>  1 35.455    -124.903336 8.0         Sardinops sagax     
#>  2 32.956665 -117.305    4.5         Engraulis mordax    
#>  3 32.91     -117.4      5.0         Merluccius productus
#>  4 32.511665 -118.21167  4.0         Engraulis mordax    
#>  5 32.511665 -118.21167  2.5         Engraulis mordax    
#>  6 32.511665 -118.21167  3.5         Engraulis mordax    
#>  7 32.511665 -118.21167  6.0         Merluccius productus
#>  8 32.511665 -118.21167  3.0         Sardinops sagax     
#>  9 32.511665 -118.21167  5.0         Sardinops sagax     
#> 10 32.511665 -118.21167  2.8         Merluccius productus
#> # … with 1,294 more rows
…
