Using rerddap to Access Data from ERDDAP Servers • rerddap
…
whichSST <- ed_search(query = "SST")

returns about 1000 responses. The more focused query:

whichSST <- ed_search(query = "SST MODIS")

still returns 172 responses. If the simple search doesn’t narrow things enough, look at the advanced search function ed_search_adv().

Finding the Data You Want

The first way to find a dataset is to browse the builtin web page for a particular ERDDAP server. A list of some of the public available ERDDAP servers can be obtained from the rerddap command:

servers()
#> # A tibble: 62 × 4
#>    name                                                  short_name url   public
#>    <chr>                                                 <chr>      <chr> <lgl> 
#>  1 Voice of the Ocean                                    VOTO       http… TRUE  
#>  2 St. Lawrence Global Observatory - CIOOS | Observatoi… SLGO-OGSL  http… TRUE  
#>  3 CoastWatch West Coast Node                            CSWC       http… TRUE  
#>  4 ERDDAP at the Asia-Pacific Data-Research Center       APDRC      http… TRUE  
#>  5 NOAA's National Centers for Environmental Informatio… NCEI       http… TRUE  
#>  6 Biological and Chemical Oceanography Data Management… BCODMO     http… TRUE  
#>  7 European Marine Observation and Data Network (EMODne… EMODnet    http… TRUE  
#>  8 European Marine Observation and Data Network (EMODne… EMODnet P… http… TRUE  
#>  9 Marine Institute - Ireland                            MII        http… TRUE  
#> 10 CoastWatch Caribbean/Gulf of Mexico Node              CSCGOM     http… TRUE  
#> # ℹ 52 more rows
…
